{
  "project_info": {
    "project_number": "989831007753",
    "firebase_url": "https://laporkan-8be0a.firebaseio.com",
    "project_id": "laporkan-8be0a",
    "storage_bucket": "laporkan-8be0a.appspot.com"
  },
  "client": [
    {
      "client_info": {
        "mobilesdk_app_id": "1:989831007753:android:a41c1fdd50187307",
        "android_client_info": {
          "package_name": "com.panritech.fuad.laporkan"
        }
      },
      "oauth_client": [
        {
          "client_id": "989831007753-vha5dq3prvu9ermn6f712r0ta10eoghm.apps.googleusercontent.com",
          "client_type": 1,
          "android_info": {
            "package_name": "com.panritech.fuad.laporkan",
            "certificate_hash": "f3b84af2bbd2ce7830f0c021e97c94060b730beb"
          }
        },
        {
          "client_id": "989831007753-8l60eupnmm520cb216mahv9ji2tr5h67.apps.googleusercontent.com",
          "client_type": 3
        }
      ],
      "api_key": [
        {
          "current_key": "AIzaSyCruWWEBpifyXR9TCqsLggZEOOL6RtVE08"
        }
      ],
      "services": {
        "analytics_service": {
          "status": 1
        },
        "appinvite_service": {
          "status": 2,
          "other_platform_oauth_client": [
            {
              "client_id": "989831007753-8l60eupnmm520cb216mahv9ji2tr5h67.apps.googleusercontent.com",
              "client_type": 3
            }
          ]
        },
        "ads_service": {
          "status": 2
        }
      }
    },
    {
      "client_info": {
        "mobilesdk_app_id": "1:989831007753:android:2b2b80e824502817",
        "android_client_info": {
          "package_name": "com.panritech.fuad.laporkandepartment"
        }
      },
      "oauth_client": [
        {
          "client_id": "989831007753-p07j47995dj2vbmi2rhovdi0andhkqh8.apps.googleusercontent.com",
          "client_type": 1,
          "android_info": {
            "package_name": "com.panritech.fuad.laporkandepartment",
            "certificate_hash": "f3b84af2bbd2ce7830f0c021e97c94060b730beb"
          }
        },
        {
          "client_id": "989831007753-fslqp9jeo7mdv22nv5oe6ctsrhlaqsn7.apps.googleusercontent.com",
          "client_type": 1,
          "android_info": {
            "package_name": "com.panritech.fuad.laporkandepartment",
            "certificate_hash": "c23887088d09597cae72f437852ed838fce0dfbb"
          }
        },
        {
          "client_id": "989831007753-8l60eupnmm520cb216mahv9ji2tr5h67.apps.googleusercontent.com",
          "client_type": 3
        }
      ],
      "api_key": [
        {
          "current_key": "AIzaSyCruWWEBpifyXR9TCqsLggZEOOL6RtVE08"
        }
      ],
      "services": {
        "analytics_service": {
          "status": 1
        },
        "appinvite_service": {
          "status": 2,
          "other_platform_oauth_client": [
            {
              "client_id": "989831007753-8l60eupnmm520cb216mahv9ji2tr5h67.apps.googleusercontent.com",
              "client_type": 3
            }
          ]
        },
        "ads_service": {
          "status": 2
        }
      }
    },
    {
      "client_info": {
        "mobilesdk_app_id": "1:989831007753:android:8fbbef5378d05134",
        "android_client_info": {
          "package_name": "com.panritech.fuad.laporkanoperator"
        }
      },
      "oauth_client": [
        {
          "client_id": "989831007753-iler4qpfitk71vl7u87rht491smf2lf7.apps.googleusercontent.com",
          "client_type": 1,
          "android_info": {
            "package_name": "com.panritech.fuad.laporkanoperator",
            "certificate_hash": "c23887088d09597cae72f437852ed838fce0dfbb"
          }
        },
        {
          "client_id": "989831007753-8l60eupnmm520cb216mahv9ji2tr5h67.apps.googleusercontent.com",
          "client_type": 3
        }
      ],
      "api_key": [
        {
          "current_key": "AIzaSyCruWWEBpifyXR9TCqsLggZEOOL6RtVE08"
        }
      ],
      "services": {
        "analytics_service": {
          "status": 1
        },
        "appinvite_service": {
          "status": 2,
          "other_platform_oauth_client": [
            {
              "client_id": "989831007753-8l60eupnmm520cb216mahv9ji2tr5h67.apps.googleusercontent.com",
              "client_type": 3
            }
          ]
        },
        "ads_service": {
          "status": 2
        }
      }
    }
  ],
  "configuration_version": "1"
}